{
  "type": "File",
  "start": 0,
  "end": 661,
  "loc": {
    "start": {
      "line": 1,
      "column": 0
    },
    "end": {
      "line": 34,
      "column": 0
    }
  },
  "program": {
    "type": "Program",
    "start": 0,
    "end": 661,
    "loc": {
      "start": {
        "line": 1,
        "column": 0
      },
      "end": {
        "line": 34,
        "column": 0
      }
    },
    "sourceType": "module",
    "body": [
      {
        "type": "Identifier",
        "start": 348,
        "end": 624,
        "loc": {
          "start": {
            "line": 17,
            "column": 0
          },
          "end": {
            "line": 31,
            "column": 1
          }
        },
        "id": {
          "type": "Identifier",
          "start": 354,
          "end": 372,
          "loc": {
            "start": {
              "line": 17,
              "column": 6
            },
            "end": {
              "line": 17,
              "column": 24
            },
            "identifierName": "ReactServicePlugin"
          },
          "name": "ReactServicePlugin",
          "leadingComments": null
        },
        "superClass": null,
        "body": {
          "type": "ClassBody",
          "start": 373,
          "end": 624,
          "loc": {
            "start": {
              "line": 17,
              "column": 25
            },
            "end": {
              "line": 31,
              "column": 1
            }
          },
          "body": [
            {
              "type": "ClassMethod",
              "start": 506,
              "end": 555,
              "loc": {
                "start": {
                  "line": 24,
                  "column": 2
                },
                "end": {
                  "line": 26,
                  "column": 3
                }
              },
              "static": false,
              "computed": false,
              "key": {
                "type": "Identifier",
                "start": 506,
                "end": 517,
                "loc": {
                  "start": {
                    "line": 24,
                    "column": 2
                  },
                  "end": {
                    "line": 24,
                    "column": 13
                  },
                  "identifierName": "constructor"
                },
                "name": "constructor",
                "leadingComments": null
              },
              "kind": "constructor",
              "id": null,
              "generator": false,
              "expression": false,
              "async": false,
              "params": [
                {
                  "type": "ObjectPattern",
                  "start": 518,
                  "end": 526,
                  "loc": {
                    "start": {
                      "line": 24,
                      "column": 14
                    },
                    "end": {
                      "line": 24,
                      "column": 22
                    }
                  },
                  "properties": [
                    {
                      "type": "ObjectProperty",
                      "start": 520,
                      "end": 524,
                      "loc": {
                        "start": {
                          "line": 24,
                          "column": 16
                        },
                        "end": {
                          "line": 24,
                          "column": 20
                        }
                      },
                      "method": false,
                      "shorthand": true,
                      "computed": false,
                      "key": {
                        "type": "Identifier",
                        "start": 520,
                        "end": 524,
                        "loc": {
                          "start": {
                            "line": 24,
                            "column": 16
                          },
                          "end": {
                            "line": 24,
                            "column": 20
                          },
                          "identifierName": "name"
                        },
                        "name": "name"
                      },
                      "value": {
                        "type": "Identifier",
                        "start": 520,
                        "end": 524,
                        "loc": {
                          "start": {
                            "line": 24,
                            "column": 16
                          },
                          "end": {
                            "line": 24,
                            "column": 20
                          },
                          "identifierName": "name"
                        },
                        "name": "name"
                      },
                      "extra": {
                        "shorthand": true
                      }
                    }
                  ]
                }
              ],
              "body": {
                "type": "BlockStatement",
                "start": 528,
                "end": 555,
                "loc": {
                  "start": {
                    "line": 24,
                    "column": 24
                  },
                  "end": {
                    "line": 26,
                    "column": 3
                  }
                },
                "body": [
                  {
                    "type": "ExpressionStatement",
                    "start": 534,
                    "end": 551,
                    "loc": {
                      "start": {
                        "line": 25,
                        "column": 4
                      },
                      "end": {
                        "line": 25,
                        "column": 21
                      }
                    },
                    "expression": {
                      "type": "AssignmentExpression",
                      "start": 534,
                      "end": 550,
                      "loc": {
                        "start": {
                          "line": 25,
                          "column": 4
                        },
                        "end": {
                          "line": 25,
                          "column": 20
                        }
                      },
                      "operator": "=",
                      "left": {
                        "type": "MemberExpression",
                        "start": 534,
                        "end": 543,
                        "loc": {
                          "start": {
                            "line": 25,
                            "column": 4
                          },
                          "end": {
                            "line": 25,
                            "column": 13
                          }
                        },
                        "object": {
                          "type": "ThisExpression",
                          "start": 534,
                          "end": 538,
                          "loc": {
                            "start": {
                              "line": 25,
                              "column": 4
                            },
                            "end": {
                              "line": 25,
                              "column": 8
                            }
                          }
                        },
                        "property": {
                          "type": "Identifier",
                          "start": 539,
                          "end": 543,
                          "loc": {
                            "start": {
                              "line": 25,
                              "column": 9
                            },
                            "end": {
                              "line": 25,
                              "column": 13
                            },
                            "identifierName": "name"
                          },
                          "name": "name"
                        },
                        "computed": false
                      },
                      "right": {
                        "type": "Identifier",
                        "start": 546,
                        "end": 550,
                        "loc": {
                          "start": {
                            "line": 25,
                            "column": 16
                          },
                          "end": {
                            "line": 25,
                            "column": 20
                          },
                          "identifierName": "name"
                        },
                        "name": "name"
                      }
                    }
                  }
                ],
                "directives": []
              },
              "leadingComments": [
                {
                  "type": "CommentBlock",
                  "value": "*\n   * The name of the plugin\n   *\n   * @param  {string} options.name  The name of the plugin\n   * @return {Void} void\n   ",
                  "start": 377,
                  "end": 503,
                  "loc": {
                    "start": {
                      "line": 18,
                      "column": 2
                    },
                    "end": {
                      "line": 23,
                      "column": 5
                    }
                  }
                }
              ]
            },
            {
              "type": "ClassProperty",
              "start": 559,
              "end": 622,
              "loc": {
                "start": {
                  "line": 28,
                  "column": 2
                },
                "end": {
                  "line": 30,
                  "column": 3
                }
              },
              "static": false,
              "computed": false,
              "key": {
                "type": "Identifier",
                "start": 559,
                "end": 565,
                "loc": {
                  "start": {
                    "line": 28,
                    "column": 2
                  },
                  "end": {
                    "line": 28,
                    "column": 8
                  },
                  "identifierName": "render"
                },
                "name": "render"
              },
              "value": {
                "type": "ArrowFunctionExpression",
                "start": 568,
                "end": 622,
                "loc": {
                  "start": {
                    "line": 28,
                    "column": 11
                  },
                  "end": {
                    "line": 30,
                    "column": 3
                  }
                },
                "id": null,
                "generator": false,
                "expression": false,
                "async": false,
                "params": [],
                "body": {
                  "type": "BlockStatement",
                  "start": 574,
                  "end": 622,
                  "loc": {
                    "start": {
                      "line": 28,
                      "column": 17
                    },
                    "end": {
                      "line": 30,
                      "column": 3
                    }
                  },
                  "body": [
                    {
                      "type": "ThrowStatement",
                      "start": 580,
                      "end": 618,
                      "loc": {
                        "start": {
                          "line": 29,
                          "column": 4
                        },
                        "end": {
                          "line": 29,
                          "column": 42
                        }
                      },
                      "argument": {
                        "type": "NewExpression",
                        "start": 586,
                        "end": 617,
                        "loc": {
                          "start": {
                            "line": 29,
                            "column": 10
                          },
                          "end": {
                            "line": 29,
                            "column": 41
                          }
                        },
                        "callee": {
                          "type": "Identifier",
                          "start": 590,
                          "end": 595,
                          "loc": {
                            "start": {
                              "line": 29,
                              "column": 14
                            },
                            "end": {
                              "line": 29,
                              "column": 19
                            },
                            "identifierName": "Error"
                          },
                          "name": "Error"
                        },
                        "arguments": [
                          {
                            "type": "StringLiteral",
                            "start": 596,
                            "end": 616,
                            "loc": {
                              "start": {
                                "line": 29,
                                "column": 20
                              },
                              "end": {
                                "line": 29,
                                "column": 40
                              }
                            },
                            "extra": {
                              "rawValue": "Not implemented!!!",
                              "raw": "'Not implemented!!!'"
                            },
                            "value": "Not implemented!!!"
                          }
                        ]
                      }
                    }
                  ],
                  "directives": []
                }
              }
            }
          ]
        },
        "leadingComments": [],
        "name": "_",
        "trailingComments": []
      },
      {
        "type": "Identifier",
        "start": 626,
        "end": 660,
        "loc": {
          "start": {
            "line": 33,
            "column": 0
          },
          "end": {
            "line": 33,
            "column": 34
          }
        },
        "declaration": {
          "type": "Identifier",
          "start": 641,
          "end": 659,
          "loc": {
            "start": {
              "line": 33,
              "column": 15
            },
            "end": {
              "line": 33,
              "column": 33
            },
            "identifierName": "ReactServicePlugin"
          },
          "name": "ReactServicePlugin"
        },
        "name": "_",
        "leadingComments": [],
        "trailingComments": []
      },
      {
        "type": "ExportDefaultDeclaration",
        "start": 626,
        "end": 660,
        "loc": {
          "start": {
            "line": 33,
            "column": 0
          },
          "end": {
            "line": 33,
            "column": 34
          }
        },
        "declaration": {
          "type": "ClassDeclaration",
          "start": 348,
          "end": 624,
          "loc": {
            "start": {
              "line": 17,
              "column": 0
            },
            "end": {
              "line": 31,
              "column": 1
            }
          },
          "id": {
            "type": "Identifier",
            "start": 354,
            "end": 372,
            "loc": {
              "start": {
                "line": 17,
                "column": 6
              },
              "end": {
                "line": 17,
                "column": 24
              },
              "identifierName": "ReactServicePlugin"
            },
            "name": "ReactServicePlugin",
            "leadingComments": null
          },
          "superClass": null,
          "body": {
            "type": "ClassBody",
            "start": 373,
            "end": 624,
            "loc": {
              "start": {
                "line": 17,
                "column": 25
              },
              "end": {
                "line": 31,
                "column": 1
              }
            },
            "body": [
              {
                "type": "ClassMethod",
                "start": 506,
                "end": 555,
                "loc": {
                  "start": {
                    "line": 24,
                    "column": 2
                  },
                  "end": {
                    "line": 26,
                    "column": 3
                  }
                },
                "static": false,
                "computed": false,
                "key": {
                  "type": "Identifier",
                  "start": 506,
                  "end": 517,
                  "loc": {
                    "start": {
                      "line": 24,
                      "column": 2
                    },
                    "end": {
                      "line": 24,
                      "column": 13
                    },
                    "identifierName": "constructor"
                  },
                  "name": "constructor",
                  "leadingComments": null
                },
                "kind": "constructor",
                "id": null,
                "generator": false,
                "expression": false,
                "async": false,
                "params": [
                  {
                    "type": "ObjectPattern",
                    "start": 518,
                    "end": 526,
                    "loc": {
                      "start": {
                        "line": 24,
                        "column": 14
                      },
                      "end": {
                        "line": 24,
                        "column": 22
                      }
                    },
                    "properties": [
                      {
                        "type": "ObjectProperty",
                        "start": 520,
                        "end": 524,
                        "loc": {
                          "start": {
                            "line": 24,
                            "column": 16
                          },
                          "end": {
                            "line": 24,
                            "column": 20
                          }
                        },
                        "method": false,
                        "shorthand": true,
                        "computed": false,
                        "key": {
                          "type": "Identifier",
                          "start": 520,
                          "end": 524,
                          "loc": {
                            "start": {
                              "line": 24,
                              "column": 16
                            },
                            "end": {
                              "line": 24,
                              "column": 20
                            },
                            "identifierName": "name"
                          },
                          "name": "name"
                        },
                        "value": {
                          "type": "Identifier",
                          "start": 520,
                          "end": 524,
                          "loc": {
                            "start": {
                              "line": 24,
                              "column": 16
                            },
                            "end": {
                              "line": 24,
                              "column": 20
                            },
                            "identifierName": "name"
                          },
                          "name": "name"
                        },
                        "extra": {
                          "shorthand": true
                        }
                      }
                    ]
                  }
                ],
                "body": {
                  "type": "BlockStatement",
                  "start": 528,
                  "end": 555,
                  "loc": {
                    "start": {
                      "line": 24,
                      "column": 24
                    },
                    "end": {
                      "line": 26,
                      "column": 3
                    }
                  },
                  "body": [
                    {
                      "type": "ExpressionStatement",
                      "start": 534,
                      "end": 551,
                      "loc": {
                        "start": {
                          "line": 25,
                          "column": 4
                        },
                        "end": {
                          "line": 25,
                          "column": 21
                        }
                      },
                      "expression": {
                        "type": "AssignmentExpression",
                        "start": 534,
                        "end": 550,
                        "loc": {
                          "start": {
                            "line": 25,
                            "column": 4
                          },
                          "end": {
                            "line": 25,
                            "column": 20
                          }
                        },
                        "operator": "=",
                        "left": {
                          "type": "MemberExpression",
                          "start": 534,
                          "end": 543,
                          "loc": {
                            "start": {
                              "line": 25,
                              "column": 4
                            },
                            "end": {
                              "line": 25,
                              "column": 13
                            }
                          },
                          "object": {
                            "type": "ThisExpression",
                            "start": 534,
                            "end": 538,
                            "loc": {
                              "start": {
                                "line": 25,
                                "column": 4
                              },
                              "end": {
                                "line": 25,
                                "column": 8
                              }
                            }
                          },
                          "property": {
                            "type": "Identifier",
                            "start": 539,
                            "end": 543,
                            "loc": {
                              "start": {
                                "line": 25,
                                "column": 9
                              },
                              "end": {
                                "line": 25,
                                "column": 13
                              },
                              "identifierName": "name"
                            },
                            "name": "name"
                          },
                          "computed": false
                        },
                        "right": {
                          "type": "Identifier",
                          "start": 546,
                          "end": 550,
                          "loc": {
                            "start": {
                              "line": 25,
                              "column": 16
                            },
                            "end": {
                              "line": 25,
                              "column": 20
                            },
                            "identifierName": "name"
                          },
                          "name": "name"
                        }
                      }
                    }
                  ],
                  "directives": []
                },
                "leadingComments": [
                  {
                    "type": "CommentBlock",
                    "value": "*\n   * The name of the plugin\n   *\n   * @param  {string} options.name  The name of the plugin\n   * @return {Void} void\n   ",
                    "start": 377,
                    "end": 503,
                    "loc": {
                      "start": {
                        "line": 18,
                        "column": 2
                      },
                      "end": {
                        "line": 23,
                        "column": 5
                      }
                    }
                  }
                ]
              },
              {
                "type": "ClassProperty",
                "start": 559,
                "end": 622,
                "loc": {
                  "start": {
                    "line": 28,
                    "column": 2
                  },
                  "end": {
                    "line": 30,
                    "column": 3
                  }
                },
                "static": false,
                "computed": false,
                "key": {
                  "type": "Identifier",
                  "start": 559,
                  "end": 565,
                  "loc": {
                    "start": {
                      "line": 28,
                      "column": 2
                    },
                    "end": {
                      "line": 28,
                      "column": 8
                    },
                    "identifierName": "render"
                  },
                  "name": "render"
                },
                "value": {
                  "type": "ArrowFunctionExpression",
                  "start": 568,
                  "end": 622,
                  "loc": {
                    "start": {
                      "line": 28,
                      "column": 11
                    },
                    "end": {
                      "line": 30,
                      "column": 3
                    }
                  },
                  "id": null,
                  "generator": false,
                  "expression": false,
                  "async": false,
                  "params": [],
                  "body": {
                    "type": "BlockStatement",
                    "start": 574,
                    "end": 622,
                    "loc": {
                      "start": {
                        "line": 28,
                        "column": 17
                      },
                      "end": {
                        "line": 30,
                        "column": 3
                      }
                    },
                    "body": [
                      {
                        "type": "ThrowStatement",
                        "start": 580,
                        "end": 618,
                        "loc": {
                          "start": {
                            "line": 29,
                            "column": 4
                          },
                          "end": {
                            "line": 29,
                            "column": 42
                          }
                        },
                        "argument": {
                          "type": "NewExpression",
                          "start": 586,
                          "end": 617,
                          "loc": {
                            "start": {
                              "line": 29,
                              "column": 10
                            },
                            "end": {
                              "line": 29,
                              "column": 41
                            }
                          },
                          "callee": {
                            "type": "Identifier",
                            "start": 590,
                            "end": 595,
                            "loc": {
                              "start": {
                                "line": 29,
                                "column": 14
                              },
                              "end": {
                                "line": 29,
                                "column": 19
                              },
                              "identifierName": "Error"
                            },
                            "name": "Error"
                          },
                          "arguments": [
                            {
                              "type": "StringLiteral",
                              "start": 596,
                              "end": 616,
                              "loc": {
                                "start": {
                                  "line": 29,
                                  "column": 20
                                },
                                "end": {
                                  "line": 29,
                                  "column": 40
                                }
                              },
                              "extra": {
                                "rawValue": "Not implemented!!!",
                                "raw": "'Not implemented!!!'"
                              },
                              "value": "Not implemented!!!"
                            }
                          ]
                        }
                      }
                    ],
                    "directives": []
                  }
                }
              }
            ]
          },
          "leadingComments": [
            {
              "type": "CommentBlock",
              "value": "*\n * The base class for the ReactServicePlugin.\n * The deriving classes must implement an aync method called render and return\n * an object with the key/value pairs that are to be returned together with the\n * rendered html:\n *\n * @example\n * render = async ({ }) => {\n *   ...\n *   return {\n *     myKey: myValue\n *   }\n * }\n *\n * @interface\n",
              "start": 0,
              "end": 347,
              "loc": {
                "start": {
                  "line": 1,
                  "column": 0
                },
                "end": {
                  "line": 16,
                  "column": 2
                }
              }
            }
          ],
          "__PseudoExport__": false,
          "trailingComments": []
        },
        "leadingComments": null
      }
    ],
    "directives": []
  },
  "comments": [
    {
      "type": "CommentBlock",
      "value": "*\n * The base class for the ReactServicePlugin.\n * The deriving classes must implement an aync method called render and return\n * an object with the key/value pairs that are to be returned together with the\n * rendered html:\n *\n * @example\n * render = async ({ }) => {\n *   ...\n *   return {\n *     myKey: myValue\n *   }\n * }\n *\n * @interface\n",
      "start": 0,
      "end": 347,
      "loc": {
        "start": {
          "line": 1,
          "column": 0
        },
        "end": {
          "line": 16,
          "column": 2
        }
      }
    },
    {
      "type": "CommentBlock",
      "value": "*\n   * The name of the plugin\n   *\n   * @param  {string} options.name  The name of the plugin\n   * @return {Void} void\n   ",
      "start": 377,
      "end": 503,
      "loc": {
        "start": {
          "line": 18,
          "column": 2
        },
        "end": {
          "line": 23,
          "column": 5
        }
      }
    }
  ],
  "tokens": [
    {
      "type": "CommentBlock",
      "value": "*\n * The base class for the ReactServicePlugin.\n * The deriving classes must implement an aync method called render and return\n * an object with the key/value pairs that are to be returned together with the\n * rendered html:\n *\n * @example\n * render = async ({ }) => {\n *   ...\n *   return {\n *     myKey: myValue\n *   }\n * }\n *\n * @interface\n",
      "start": 0,
      "end": 347,
      "loc": {
        "start": {
          "line": 1,
          "column": 0
        },
        "end": {
          "line": 16,
          "column": 2
        }
      }
    },
    {
      "type": {
        "label": "class",
        "keyword": "class",
        "beforeExpr": false,
        "startsExpr": false,
        "rightAssociative": false,
        "isLoop": false,
        "isAssign": false,
        "prefix": false,
        "postfix": false,
        "binop": null,
        "updateContext": null
      },
      "value": "class",
      "start": 348,
      "end": 353,
      "loc": {
        "start": {
          "line": 17,
          "column": 0
        },
        "end": {
          "line": 17,
          "column": 5
        }
      }
    },
    {
      "type": {
        "label": "name",
        "beforeExpr": false,
        "startsExpr": true,
        "rightAssociative": false,
        "isLoop": false,
        "isAssign": false,
        "prefix": false,
        "postfix": false,
        "binop": null
      },
      "value": "ReactServicePlugin",
      "start": 354,
      "end": 372,
      "loc": {
        "start": {
          "line": 17,
          "column": 6
        },
        "end": {
          "line": 17,
          "column": 24
        }
      }
    },
    {
      "type": {
        "label": "{",
        "beforeExpr": true,
        "startsExpr": true,
        "rightAssociative": false,
        "isLoop": false,
        "isAssign": false,
        "prefix": false,
        "postfix": false,
        "binop": null
      },
      "start": 373,
      "end": 374,
      "loc": {
        "start": {
          "line": 17,
          "column": 25
        },
        "end": {
          "line": 17,
          "column": 26
        }
      }
    },
    {
      "type": "CommentBlock",
      "value": "*\n   * The name of the plugin\n   *\n   * @param  {string} options.name  The name of the plugin\n   * @return {Void} void\n   ",
      "start": 377,
      "end": 503,
      "loc": {
        "start": {
          "line": 18,
          "column": 2
        },
        "end": {
          "line": 23,
          "column": 5
        }
      }
    },
    {
      "type": {
        "label": "name",
        "beforeExpr": false,
        "startsExpr": true,
        "rightAssociative": false,
        "isLoop": false,
        "isAssign": false,
        "prefix": false,
        "postfix": false,
        "binop": null
      },
      "value": "constructor",
      "start": 506,
      "end": 517,
      "loc": {
        "start": {
          "line": 24,
          "column": 2
        },
        "end": {
          "line": 24,
          "column": 13
        }
      }
    },
    {
      "type": {
        "label": "(",
        "beforeExpr": true,
        "startsExpr": true,
        "rightAssociative": false,
        "isLoop": false,
        "isAssign": false,
        "prefix": false,
        "postfix": false,
        "binop": null
      },
      "start": 517,
      "end": 518,
      "loc": {
        "start": {
          "line": 24,
          "column": 13
        },
        "end": {
          "line": 24,
          "column": 14
        }
      }
    },
    {
      "type": {
        "label": "{",
        "beforeExpr": true,
        "startsExpr": true,
        "rightAssociative": false,
        "isLoop": false,
        "isAssign": false,
        "prefix": false,
        "postfix": false,
        "binop": null
      },
      "start": 518,
      "end": 519,
      "loc": {
        "start": {
          "line": 24,
          "column": 14
        },
        "end": {
          "line": 24,
          "column": 15
        }
      }
    },
    {
      "type": {
        "label": "name",
        "beforeExpr": false,
        "startsExpr": true,
        "rightAssociative": false,
        "isLoop": false,
        "isAssign": false,
        "prefix": false,
        "postfix": false,
        "binop": null
      },
      "value": "name",
      "start": 520,
      "end": 524,
      "loc": {
        "start": {
          "line": 24,
          "column": 16
        },
        "end": {
          "line": 24,
          "column": 20
        }
      }
    },
    {
      "type": {
        "label": "}",
        "beforeExpr": false,
        "startsExpr": false,
        "rightAssociative": false,
        "isLoop": false,
        "isAssign": false,
        "prefix": false,
        "postfix": false,
        "binop": null
      },
      "start": 525,
      "end": 526,
      "loc": {
        "start": {
          "line": 24,
          "column": 21
        },
        "end": {
          "line": 24,
          "column": 22
        }
      }
    },
    {
      "type": {
        "label": ")",
        "beforeExpr": false,
        "startsExpr": false,
        "rightAssociative": false,
        "isLoop": false,
        "isAssign": false,
        "prefix": false,
        "postfix": false,
        "binop": null
      },
      "start": 526,
      "end": 527,
      "loc": {
        "start": {
          "line": 24,
          "column": 22
        },
        "end": {
          "line": 24,
          "column": 23
        }
      }
    },
    {
      "type": {
        "label": "{",
        "beforeExpr": true,
        "startsExpr": true,
        "rightAssociative": false,
        "isLoop": false,
        "isAssign": false,
        "prefix": false,
        "postfix": false,
        "binop": null
      },
      "start": 528,
      "end": 529,
      "loc": {
        "start": {
          "line": 24,
          "column": 24
        },
        "end": {
          "line": 24,
          "column": 25
        }
      }
    },
    {
      "type": {
        "label": "this",
        "keyword": "this",
        "beforeExpr": false,
        "startsExpr": true,
        "rightAssociative": false,
        "isLoop": false,
        "isAssign": false,
        "prefix": false,
        "postfix": false,
        "binop": null,
        "updateContext": null
      },
      "value": "this",
      "start": 534,
      "end": 538,
      "loc": {
        "start": {
          "line": 25,
          "column": 4
        },
        "end": {
          "line": 25,
          "column": 8
        }
      }
    },
    {
      "type": {
        "label": ".",
        "beforeExpr": false,
        "startsExpr": false,
        "rightAssociative": false,
        "isLoop": false,
        "isAssign": false,
        "prefix": false,
        "postfix": false,
        "binop": null,
        "updateContext": null
      },
      "start": 538,
      "end": 539,
      "loc": {
        "start": {
          "line": 25,
          "column": 8
        },
        "end": {
          "line": 25,
          "column": 9
        }
      }
    },
    {
      "type": {
        "label": "name",
        "beforeExpr": false,
        "startsExpr": true,
        "rightAssociative": false,
        "isLoop": false,
        "isAssign": false,
        "prefix": false,
        "postfix": false,
        "binop": null
      },
      "value": "name",
      "start": 539,
      "end": 543,
      "loc": {
        "start": {
          "line": 25,
          "column": 9
        },
        "end": {
          "line": 25,
          "column": 13
        }
      }
    },
    {
      "type": {
        "label": "=",
        "beforeExpr": true,
        "startsExpr": false,
        "rightAssociative": false,
        "isLoop": false,
        "isAssign": true,
        "prefix": false,
        "postfix": false,
        "binop": null,
        "updateContext": null
      },
      "value": "=",
      "start": 544,
      "end": 545,
      "loc": {
        "start": {
          "line": 25,
          "column": 14
        },
        "end": {
          "line": 25,
          "column": 15
        }
      }
    },
    {
      "type": {
        "label": "name",
        "beforeExpr": false,
        "startsExpr": true,
        "rightAssociative": false,
        "isLoop": false,
        "isAssign": false,
        "prefix": false,
        "postfix": false,
        "binop": null
      },
      "value": "name",
      "start": 546,
      "end": 550,
      "loc": {
        "start": {
          "line": 25,
          "column": 16
        },
        "end": {
          "line": 25,
          "column": 20
        }
      }
    },
    {
      "type": {
        "label": ";",
        "beforeExpr": true,
        "startsExpr": false,
        "rightAssociative": false,
        "isLoop": false,
        "isAssign": false,
        "prefix": false,
        "postfix": false,
        "binop": null,
        "updateContext": null
      },
      "start": 550,
      "end": 551,
      "loc": {
        "start": {
          "line": 25,
          "column": 20
        },
        "end": {
          "line": 25,
          "column": 21
        }
      }
    },
    {
      "type": {
        "label": "}",
        "beforeExpr": false,
        "startsExpr": false,
        "rightAssociative": false,
        "isLoop": false,
        "isAssign": false,
        "prefix": false,
        "postfix": false,
        "binop": null
      },
      "start": 554,
      "end": 555,
      "loc": {
        "start": {
          "line": 26,
          "column": 2
        },
        "end": {
          "line": 26,
          "column": 3
        }
      }
    },
    {
      "type": {
        "label": "name",
        "beforeExpr": false,
        "startsExpr": true,
        "rightAssociative": false,
        "isLoop": false,
        "isAssign": false,
        "prefix": false,
        "postfix": false,
        "binop": null
      },
      "value": "render",
      "start": 559,
      "end": 565,
      "loc": {
        "start": {
          "line": 28,
          "column": 2
        },
        "end": {
          "line": 28,
          "column": 8
        }
      }
    },
    {
      "type": {
        "label": "=",
        "beforeExpr": true,
        "startsExpr": false,
        "rightAssociative": false,
        "isLoop": false,
        "isAssign": true,
        "prefix": false,
        "postfix": false,
        "binop": null,
        "updateContext": null
      },
      "value": "=",
      "start": 566,
      "end": 567,
      "loc": {
        "start": {
          "line": 28,
          "column": 9
        },
        "end": {
          "line": 28,
          "column": 10
        }
      }
    },
    {
      "type": {
        "label": "(",
        "beforeExpr": true,
        "startsExpr": true,
        "rightAssociative": false,
        "isLoop": false,
        "isAssign": false,
        "prefix": false,
        "postfix": false,
        "binop": null
      },
      "start": 568,
      "end": 569,
      "loc": {
        "start": {
          "line": 28,
          "column": 11
        },
        "end": {
          "line": 28,
          "column": 12
        }
      }
    },
    {
      "type": {
        "label": ")",
        "beforeExpr": false,
        "startsExpr": false,
        "rightAssociative": false,
        "isLoop": false,
        "isAssign": false,
        "prefix": false,
        "postfix": false,
        "binop": null
      },
      "start": 569,
      "end": 570,
      "loc": {
        "start": {
          "line": 28,
          "column": 12
        },
        "end": {
          "line": 28,
          "column": 13
        }
      }
    },
    {
      "type": {
        "label": "=>",
        "beforeExpr": true,
        "startsExpr": false,
        "rightAssociative": false,
        "isLoop": false,
        "isAssign": false,
        "prefix": false,
        "postfix": false,
        "binop": null,
        "updateContext": null
      },
      "start": 571,
      "end": 573,
      "loc": {
        "start": {
          "line": 28,
          "column": 14
        },
        "end": {
          "line": 28,
          "column": 16
        }
      }
    },
    {
      "type": {
        "label": "{",
        "beforeExpr": true,
        "startsExpr": true,
        "rightAssociative": false,
        "isLoop": false,
        "isAssign": false,
        "prefix": false,
        "postfix": false,
        "binop": null
      },
      "start": 574,
      "end": 575,
      "loc": {
        "start": {
          "line": 28,
          "column": 17
        },
        "end": {
          "line": 28,
          "column": 18
        }
      }
    },
    {
      "type": {
        "label": "throw",
        "keyword": "throw",
        "beforeExpr": true,
        "startsExpr": false,
        "rightAssociative": false,
        "isLoop": false,
        "isAssign": false,
        "prefix": false,
        "postfix": false,
        "binop": null,
        "updateContext": null
      },
      "value": "throw",
      "start": 580,
      "end": 585,
      "loc": {
        "start": {
          "line": 29,
          "column": 4
        },
        "end": {
          "line": 29,
          "column": 9
        }
      }
    },
    {
      "type": {
        "label": "new",
        "keyword": "new",
        "beforeExpr": true,
        "startsExpr": true,
        "rightAssociative": false,
        "isLoop": false,
        "isAssign": false,
        "prefix": false,
        "postfix": false,
        "binop": null,
        "updateContext": null
      },
      "value": "new",
      "start": 586,
      "end": 589,
      "loc": {
        "start": {
          "line": 29,
          "column": 10
        },
        "end": {
          "line": 29,
          "column": 13
        }
      }
    },
    {
      "type": {
        "label": "name",
        "beforeExpr": false,
        "startsExpr": true,
        "rightAssociative": false,
        "isLoop": false,
        "isAssign": false,
        "prefix": false,
        "postfix": false,
        "binop": null
      },
      "value": "Error",
      "start": 590,
      "end": 595,
      "loc": {
        "start": {
          "line": 29,
          "column": 14
        },
        "end": {
          "line": 29,
          "column": 19
        }
      }
    },
    {
      "type": {
        "label": "(",
        "beforeExpr": true,
        "startsExpr": true,
        "rightAssociative": false,
        "isLoop": false,
        "isAssign": false,
        "prefix": false,
        "postfix": false,
        "binop": null
      },
      "start": 595,
      "end": 596,
      "loc": {
        "start": {
          "line": 29,
          "column": 19
        },
        "end": {
          "line": 29,
          "column": 20
        }
      }
    },
    {
      "type": {
        "label": "string",
        "beforeExpr": false,
        "startsExpr": true,
        "rightAssociative": false,
        "isLoop": false,
        "isAssign": false,
        "prefix": false,
        "postfix": false,
        "binop": null,
        "updateContext": null
      },
      "value": "Not implemented!!!",
      "start": 596,
      "end": 616,
      "loc": {
        "start": {
          "line": 29,
          "column": 20
        },
        "end": {
          "line": 29,
          "column": 40
        }
      }
    },
    {
      "type": {
        "label": ")",
        "beforeExpr": false,
        "startsExpr": false,
        "rightAssociative": false,
        "isLoop": false,
        "isAssign": false,
        "prefix": false,
        "postfix": false,
        "binop": null
      },
      "start": 616,
      "end": 617,
      "loc": {
        "start": {
          "line": 29,
          "column": 40
        },
        "end": {
          "line": 29,
          "column": 41
        }
      }
    },
    {
      "type": {
        "label": ";",
        "beforeExpr": true,
        "startsExpr": false,
        "rightAssociative": false,
        "isLoop": false,
        "isAssign": false,
        "prefix": false,
        "postfix": false,
        "binop": null,
        "updateContext": null
      },
      "start": 617,
      "end": 618,
      "loc": {
        "start": {
          "line": 29,
          "column": 41
        },
        "end": {
          "line": 29,
          "column": 42
        }
      }
    },
    {
      "type": {
        "label": "}",
        "beforeExpr": false,
        "startsExpr": false,
        "rightAssociative": false,
        "isLoop": false,
        "isAssign": false,
        "prefix": false,
        "postfix": false,
        "binop": null
      },
      "start": 621,
      "end": 622,
      "loc": {
        "start": {
          "line": 30,
          "column": 2
        },
        "end": {
          "line": 30,
          "column": 3
        }
      }
    },
    {
      "type": {
        "label": "}",
        "beforeExpr": false,
        "startsExpr": false,
        "rightAssociative": false,
        "isLoop": false,
        "isAssign": false,
        "prefix": false,
        "postfix": false,
        "binop": null
      },
      "start": 623,
      "end": 624,
      "loc": {
        "start": {
          "line": 31,
          "column": 0
        },
        "end": {
          "line": 31,
          "column": 1
        }
      }
    },
    {
      "type": {
        "label": "export",
        "keyword": "export",
        "beforeExpr": false,
        "startsExpr": false,
        "rightAssociative": false,
        "isLoop": false,
        "isAssign": false,
        "prefix": false,
        "postfix": false,
        "binop": null,
        "updateContext": null
      },
      "value": "export",
      "start": 626,
      "end": 632,
      "loc": {
        "start": {
          "line": 33,
          "column": 0
        },
        "end": {
          "line": 33,
          "column": 6
        }
      }
    },
    {
      "type": {
        "label": "default",
        "keyword": "default",
        "beforeExpr": true,
        "startsExpr": false,
        "rightAssociative": false,
        "isLoop": false,
        "isAssign": false,
        "prefix": false,
        "postfix": false,
        "binop": null,
        "updateContext": null
      },
      "value": "default",
      "start": 633,
      "end": 640,
      "loc": {
        "start": {
          "line": 33,
          "column": 7
        },
        "end": {
          "line": 33,
          "column": 14
        }
      }
    },
    {
      "type": {
        "label": "name",
        "beforeExpr": false,
        "startsExpr": true,
        "rightAssociative": false,
        "isLoop": false,
        "isAssign": false,
        "prefix": false,
        "postfix": false,
        "binop": null
      },
      "value": "ReactServicePlugin",
      "start": 641,
      "end": 659,
      "loc": {
        "start": {
          "line": 33,
          "column": 15
        },
        "end": {
          "line": 33,
          "column": 33
        }
      }
    },
    {
      "type": {
        "label": ";",
        "beforeExpr": true,
        "startsExpr": false,
        "rightAssociative": false,
        "isLoop": false,
        "isAssign": false,
        "prefix": false,
        "postfix": false,
        "binop": null,
        "updateContext": null
      },
      "start": 659,
      "end": 660,
      "loc": {
        "start": {
          "line": 33,
          "column": 33
        },
        "end": {
          "line": 33,
          "column": 34
        }
      }
    },
    {
      "type": {
        "label": "eof",
        "beforeExpr": false,
        "startsExpr": false,
        "rightAssociative": false,
        "isLoop": false,
        "isAssign": false,
        "prefix": false,
        "postfix": false,
        "binop": null,
        "updateContext": null
      },
      "start": 661,
      "end": 661,
      "loc": {
        "start": {
          "line": 34,
          "column": 0
        },
        "end": {
          "line": 34,
          "column": 0
        }
      }
    }
  ]
}